waves/mul_bf16_waves.vcd
$version Generated by VerilatedVcd $end
$timescale 1ps $end
 $scope module $rootio $end
 $upscope $end
 $scope module mul_bf16_tb $end
  $var wire 32 U" CLK_PERIOD [31:0] $end
  $var wire 1 T" tb_clk $end
  $var wire 1 # tb_nrst $end
  $var wire 32 $ i [31:0] $end
  $var wire 16 % tb_a [15:0] $end
  $var wire 16 & tb_b [15:0] $end
  $var wire 1 ' tb_start $end
  $var wire 16 F tb_result [15:0] $end
  $var wire 1 G tb_done $end
  $var wire 16 ( test_set1[0] [15:0] $end
  $var wire 16 ) test_set1[1] [15:0] $end
  $var wire 16 * test_set1[2] [15:0] $end
  $var wire 16 + test_set1[3] [15:0] $end
  $var wire 16 , test_set1[4] [15:0] $end
  $var wire 16 - test_set1[5] [15:0] $end
  $var wire 16 . test_set1[6] [15:0] $end
  $var wire 16 / test_set1[7] [15:0] $end
  $var wire 16 0 test_set1[8] [15:0] $end
  $var wire 16 1 test_set1[9] [15:0] $end
  $var wire 16 2 test_set2[0] [15:0] $end
  $var wire 16 3 test_set2[1] [15:0] $end
  $var wire 16 4 test_set2[2] [15:0] $end
  $var wire 16 5 test_set2[3] [15:0] $end
  $var wire 16 6 test_set2[4] [15:0] $end
  $var wire 16 7 test_set2[5] [15:0] $end
  $var wire 16 8 test_set2[6] [15:0] $end
  $var wire 16 9 test_set2[7] [15:0] $end
  $var wire 16 : test_set2[8] [15:0] $end
  $var wire 16 ; test_set2[9] [15:0] $end
  $var wire 16 < test_set3[0] [15:0] $end
  $var wire 16 = test_set3[1] [15:0] $end
  $var wire 16 > test_set3[2] [15:0] $end
  $var wire 16 ? test_set3[3] [15:0] $end
  $var wire 16 @ test_set3[4] [15:0] $end
  $var wire 16 A test_set3[5] [15:0] $end
  $var wire 16 B test_set3[6] [15:0] $end
  $var wire 16 C test_set3[7] [15:0] $end
  $var wire 16 D test_set3[8] [15:0] $end
  $var wire 16 E test_set3[9] [15:0] $end
  $scope module melvin $end
   $var wire 1 T" clk $end
   $var wire 1 # nRST $end
   $var wire 1 ' start $end
   $var wire 16 % a [15:0] $end
   $var wire 16 & b [15:0] $end
   $var wire 16 F result [15:0] $end
   $var wire 1 G done $end
   $var wire 1 G lat1_ready $end
   $var wire 16 H a_latched [15:0] $end
   $var wire 16 I b_latched [15:0] $end
   $var wire 1 J frac_leading_bit_fp1 $end
   $var wire 1 K frac_leading_bit_fp2 $end
   $var wire 10 L mul_product [9:0] $end
   $var wire 1 M mul_carryout $end
   $var wire 1 N mul_round_loss $end
   $var wire 1 O mul_sign_result $end
   $var wire 8 P exp_sum [7:0] $end
   $var wire 1 Q mul_ovf $end
   $var wire 1 R mul_unf $end
   $var wire 9 S mul_frac_product [8:0] $end
   $var wire 7 T mul_significand_rounded [6:0] $end
   $var wire 8 U mul_final_exp [7:0] $end
   $scope module add_EXPs $end
    $var wire 1 M carry $end
    $var wire 8 V exp1 [7:0] $end
    $var wire 8 W exp2 [7:0] $end
    $var wire 8 P sum [7:0] $end
    $var wire 1 Q ovf $end
    $var wire 1 R unf $end
    $var wire 8 X r_exp1 [7:0] $end
    $var wire 8 Y r_exp2 [7:0] $end
    $var wire 8 Z r_sum [7:0] $end
   $upscope $end
   $scope module wallaca $end
    $var wire 8 [ a [7:0] $end
    $var wire 8 \ b [7:0] $end
    $var wire 10 L result [9:0] $end
    $var wire 1 M overflow $end
    $var wire 1 N round_loss $end
    $var wire 20 ] stage1_sums [19:0] $end
    $var wire 16 ^ stage1_carries [15:0] $end
    $var wire 13 _ stage2_level1_sums [12:0] $end
    $var wire 10 ` stage2_level2_sums [9:0] $end
    $var wire 16 a stage2_carries [15:0] $end
    $var wire 15 b stage3_sums [14:0] $end
    $var wire 10 c stage3_carries [9:0] $end
    $var wire 15 d stage4_sums [14:0] $end
    $var wire 11 e stage4_carries [10:0] $end
    $var wire 17 f product [16:0] $end
    $scope module genblk1[0] $end
     $scope module genblk1[2] $end
      $scope module fa_00 $end
       $var wire 1 g a $end
       $var wire 1 h b $end
       $var wire 1 i cin $end
       $var wire 1 j s $end
       $var wire 1 k cout $end
      $upscope $end
     $upscope $end
     $scope module genblk1[3] $end
      $scope module fa_00 $end
       $var wire 1 l a $end
       $var wire 1 m b $end
       $var wire 1 n cin $end
       $var wire 1 o s $end
       $var wire 1 p cout $end
      $upscope $end
     $upscope $end
     $scope module genblk1[4] $end
      $scope module fa_00 $end
       $var wire 1 q a $end
       $var wire 1 r b $end
       $var wire 1 s cin $end
       $var wire 1 t s $end
       $var wire 1 u cout $end
      $upscope $end
     $upscope $end
     $scope module genblk1[5] $end
      $scope module fa_00 $end
       $var wire 1 v a $end
       $var wire 1 w b $end
       $var wire 1 x cin $end
       $var wire 1 y s $end
       $var wire 1 z cout $end
      $upscope $end
     $upscope $end
     $scope module genblk1[6] $end
      $scope module fa_00 $end
       $var wire 1 { a $end
       $var wire 1 | b $end
       $var wire 1 } cin $end
       $var wire 1 ~ s $end
       $var wire 1 !! cout $end
      $upscope $end
     $upscope $end
     $scope module genblk1[7] $end
      $scope module fa_00 $end
       $var wire 1 "! a $end
       $var wire 1 #! b $end
       $var wire 1 $! cin $end
       $var wire 1 %! s $end
       $var wire 1 &! cout $end
      $upscope $end
     $upscope $end
     $scope module ha_00_first $end
      $var wire 1 '! a $end
      $var wire 1 (! b $end
      $var wire 1 )! s $end
      $var wire 1 *! cout $end
     $upscope $end
     $scope module ha_00_last $end
      $var wire 1 +! a $end
      $var wire 1 ,! b $end
      $var wire 1 -! s $end
      $var wire 1 .! cout $end
     $upscope $end
    $upscope $end
    $scope module genblk1[1] $end
     $scope module genblk1[2] $end
      $scope module fa_00 $end
       $var wire 1 /! a $end
       $var wire 1 0! b $end
       $var wire 1 1! cin $end
       $var wire 1 2! s $end
       $var wire 1 3! cout $end
      $upscope $end
     $upscope $end
     $scope module genblk1[3] $end
      $scope module fa_00 $end
       $var wire 1 4! a $end
       $var wire 1 5! b $end
       $var wire 1 6! cin $end
       $var wire 1 7! s $end
       $var wire 1 8! cout $end
      $upscope $end
     $upscope $end
     $scope module genblk1[4] $end
      $scope module fa_00 $end
       $var wire 1 9! a $end
       $var wire 1 :! b $end
       $var wire 1 ;! cin $end
       $var wire 1 <! s $end
       $var wire 1 =! cout $end
      $upscope $end
     $upscope $end
     $scope module genblk1[5] $end
      $scope module fa_00 $end
       $var wire 1 >! a $end
       $var wire 1 ?! b $end
       $var wire 1 @! cin $end
       $var wire 1 A! s $end
       $var wire 1 B! cout $end
      $upscope $end
     $upscope $end
     $scope module genblk1[6] $end
      $scope module fa_00 $end
       $var wire 1 C! a $end
       $var wire 1 D! b $end
       $var wire 1 E! cin $end
       $var wire 1 F! s $end
       $var wire 1 G! cout $end
      $upscope $end
     $upscope $end
     $scope module genblk1[7] $end
      $scope module fa_00 $end
       $var wire 1 H! a $end
       $var wire 1 I! b $end
       $var wire 1 J! cin $end
       $var wire 1 K! s $end
       $var wire 1 L! cout $end
      $upscope $end
     $upscope $end
     $scope module ha_00_first $end
      $var wire 1 M! a $end
      $var wire 1 N! b $end
      $var wire 1 O! s $end
      $var wire 1 P! cout $end
     $upscope $end
     $scope module ha_00_last $end
      $var wire 1 Q! a $end
      $var wire 1 R! b $end
      $var wire 1 S! s $end
      $var wire 1 T! cout $end
     $upscope $end
    $upscope $end
    $scope module genblk2[3] $end
     $scope module fa_s2_l1 $end
      $var wire 1 o a $end
      $var wire 1 k b $end
      $var wire 1 U! cin $end
      $var wire 1 V! s $end
      $var wire 1 W! cout $end
     $upscope $end
    $upscope $end
    $scope module genblk2[4] $end
     $scope module fa_s2_l1 $end
      $var wire 1 t a $end
      $var wire 1 p b $end
      $var wire 1 O! cin $end
      $var wire 1 X! s $end
      $var wire 1 Y! cout $end
     $upscope $end
    $upscope $end
    $scope module genblk2[5] $end
     $scope module fa_s2_l1 $end
      $var wire 1 y a $end
      $var wire 1 u b $end
      $var wire 1 2! cin $end
      $var wire 1 Z! s $end
      $var wire 1 [! cout $end
     $upscope $end
    $upscope $end
    $scope module genblk2[6] $end
     $scope module fa_s2_l1 $end
      $var wire 1 ~ a $end
      $var wire 1 z b $end
      $var wire 1 7! cin $end
      $var wire 1 \! s $end
      $var wire 1 ]! cout $end
     $upscope $end
    $upscope $end
    $scope module genblk2[7] $end
     $scope module fa_s2_l1 $end
      $var wire 1 %! a $end
      $var wire 1 !! b $end
      $var wire 1 <! cin $end
      $var wire 1 ^! s $end
      $var wire 1 _! cout $end
     $upscope $end
    $upscope $end
    $scope module genblk2[8] $end
     $scope module fa_s2_l1 $end
      $var wire 1 -! a $end
      $var wire 1 &! b $end
      $var wire 1 A! cin $end
      $var wire 1 `! s $end
      $var wire 1 a! cout $end
     $upscope $end
    $upscope $end
    $scope module genblk2[9] $end
     $scope module fa_s2_l1 $end
      $var wire 1 b! a $end
      $var wire 1 .! b $end
      $var wire 1 F! cin $end
      $var wire 1 c! s $end
      $var wire 1 d! cout $end
     $upscope $end
    $upscope $end
    $scope module genblk3[2] $end
     $scope module fa_s2_l2 $end
      $var wire 1 8! a $end
      $var wire 1 e! b $end
      $var wire 1 f! cin $end
      $var wire 1 g! s $end
      $var wire 1 h! cout $end
     $upscope $end
    $upscope $end
    $scope module genblk3[3] $end
     $scope module fa_s2_l2 $end
      $var wire 1 =! a $end
      $var wire 1 i! b $end
      $var wire 1 j! cin $end
      $var wire 1 k! s $end
      $var wire 1 l! cout $end
     $upscope $end
    $upscope $end
    $scope module genblk3[4] $end
     $scope module fa_s2_l2 $end
      $var wire 1 B! a $end
      $var wire 1 m! b $end
      $var wire 1 n! cin $end
      $var wire 1 o! s $end
      $var wire 1 p! cout $end
     $upscope $end
    $upscope $end
    $scope module genblk3[5] $end
     $scope module fa_s2_l2 $end
      $var wire 1 G! a $end
      $var wire 1 q! b $end
      $var wire 1 r! cin $end
      $var wire 1 s! s $end
      $var wire 1 t! cout $end
     $upscope $end
    $upscope $end
    $scope module genblk3[6] $end
     $scope module fa_s2_l2 $end
      $var wire 1 L! a $end
      $var wire 1 u! b $end
      $var wire 1 v! cin $end
      $var wire 1 w! s $end
      $var wire 1 x! cout $end
     $upscope $end
    $upscope $end
    $scope module genblk3[7] $end
     $scope module fa_s2_l2 $end
      $var wire 1 T! a $end
      $var wire 1 y! b $end
      $var wire 1 z! cin $end
      $var wire 1 {! s $end
      $var wire 1 |! cout $end
     $upscope $end
    $upscope $end
    $scope module genblk4[10] $end
     $scope module fa_s3_l1 $end
      $var wire 1 K! a $end
      $var wire 1 d! b $end
      $var wire 1 s! cin $end
      $var wire 1 }! s $end
      $var wire 1 ~! cout $end
     $upscope $end
    $upscope $end
    $scope module genblk4[5] $end
     $scope module fa_s3_l1 $end
      $var wire 1 Z! a $end
      $var wire 1 Y! b $end
      $var wire 1 P! cin $end
      $var wire 1 !" s $end
      $var wire 1 "" cout $end
     $upscope $end
    $upscope $end
    $scope module genblk4[6] $end
     $scope module fa_s3_l1 $end
      $var wire 1 \! a $end
      $var wire 1 [! b $end
      $var wire 1 #" cin $end
      $var wire 1 $" s $end
      $var wire 1 %" cout $end
     $upscope $end
    $upscope $end
    $scope module genblk4[7] $end
     $scope module fa_s3_l1 $end
      $var wire 1 ^! a $end
      $var wire 1 ]! b $end
      $var wire 1 g! cin $end
      $var wire 1 &" s $end
      $var wire 1 '" cout $end
     $upscope $end
    $upscope $end
    $scope module genblk4[8] $end
     $scope module fa_s3_l1 $end
      $var wire 1 `! a $end
      $var wire 1 _! b $end
      $var wire 1 k! cin $end
      $var wire 1 (" s $end
      $var wire 1 )" cout $end
     $upscope $end
    $upscope $end
    $scope module genblk4[9] $end
     $scope module fa_s3_l1 $end
      $var wire 1 c! a $end
      $var wire 1 a! b $end
      $var wire 1 o! cin $end
      $var wire 1 *" s $end
      $var wire 1 +" cout $end
     $upscope $end
    $upscope $end
    $scope module genblk5[10] $end
     $scope module fa_s4_l1 $end
      $var wire 1 }! a $end
      $var wire 1 +" b $end
      $var wire 1 p! cin $end
      $var wire 1 ," s $end
      $var wire 1 -" cout $end
     $upscope $end
    $upscope $end
    $scope module genblk5[11] $end
     $scope module fa_s4_l1 $end
      $var wire 1 ." a $end
      $var wire 1 ~! b $end
      $var wire 1 t! cin $end
      $var wire 1 /" s $end
      $var wire 1 0" cout $end
     $upscope $end
    $upscope $end
    $scope module genblk5[12] $end
     $scope module fa_s4_l1 $end
      $var wire 1 1" a $end
      $var wire 1 2" b $end
      $var wire 1 x! cin $end
      $var wire 1 3" s $end
      $var wire 1 4" cout $end
     $upscope $end
    $upscope $end
    $scope module genblk5[13] $end
     $scope module fa_s4_l1 $end
      $var wire 1 5" a $end
      $var wire 1 6" b $end
      $var wire 1 |! cin $end
      $var wire 1 7" s $end
      $var wire 1 8" cout $end
     $upscope $end
    $upscope $end
    $scope module genblk5[7] $end
     $scope module fa_s4_l1 $end
      $var wire 1 &" a $end
      $var wire 1 %" b $end
      $var wire 1 9" cin $end
      $var wire 1 :" s $end
      $var wire 1 ;" cout $end
     $upscope $end
    $upscope $end
    $scope module genblk5[8] $end
     $scope module fa_s4_l1 $end
      $var wire 1 (" a $end
      $var wire 1 '" b $end
      $var wire 1 h! cin $end
      $var wire 1 <" s $end
      $var wire 1 =" cout $end
     $upscope $end
    $upscope $end
    $scope module genblk5[9] $end
     $scope module fa_s4_l1 $end
      $var wire 1 *" a $end
      $var wire 1 )" b $end
      $var wire 1 l! cin $end
      $var wire 1 >" s $end
      $var wire 1 ?" cout $end
     $upscope $end
    $upscope $end
    $scope module ha_s2_l1_b2 $end
     $var wire 1 j a $end
     $var wire 1 *! b $end
     $var wire 1 @" s $end
     $var wire 1 A" cout $end
    $upscope $end
    $scope module ha_s2_l2_b1 $end
     $var wire 1 3! a $end
     $var wire 1 B" b $end
     $var wire 1 #" s $end
     $var wire 1 9" cout $end
    $upscope $end
    $scope module ha_s2_l2_b8 $end
     $var wire 1 C" a $end
     $var wire 1 D" b $end
     $var wire 1 5" s $end
     $var wire 1 E" cout $end
    $upscope $end
    $scope module ha_s3_l1_b11 $end
     $var wire 1 S! a $end
     $var wire 1 w! b $end
     $var wire 1 ." s $end
     $var wire 1 2" cout $end
    $upscope $end
    $scope module ha_s3_l1_b12 $end
     $var wire 1 F" a $end
     $var wire 1 {! b $end
     $var wire 1 1" s $end
     $var wire 1 6" cout $end
    $upscope $end
    $scope module ha_s3_l1_b3 $end
     $var wire 1 V! a $end
     $var wire 1 A" b $end
     $var wire 1 G" s $end
     $var wire 1 H" cout $end
    $upscope $end
    $scope module ha_s3_l1_b4 $end
     $var wire 1 X! a $end
     $var wire 1 W! b $end
     $var wire 1 I" s $end
     $var wire 1 J" cout $end
    $upscope $end
    $scope module ha_s4_l1_b14 $end
     $var wire 1 K" a $end
     $var wire 1 E" b $end
     $var wire 1 L" s $end
     $var wire 1 M" cout $end
    $upscope $end
    $scope module ha_s4_l1_b4 $end
     $var wire 1 I" a $end
     $var wire 1 H" b $end
     $var wire 1 N" s $end
     $var wire 1 O" cout $end
    $upscope $end
    $scope module ha_s4_l1_b5 $end
     $var wire 1 !" a $end
     $var wire 1 J" b $end
     $var wire 1 P" s $end
     $var wire 1 Q" cout $end
    $upscope $end
    $scope module ha_s4_l1_b6 $end
     $var wire 1 $" a $end
     $var wire 1 "" b $end
     $var wire 1 R" s $end
     $var wire 1 S" cout $end
    $upscope $end
   $upscope $end
  $upscope $end
 $upscope $end
$enddefinitions $end


#0
0#
b00000000000000000000000000000000 $
b0000000000000000 %
b0000000000000000 &
0'
b0000000000000000 (
b0000000000000000 )
b0000000000000000 *
b0000000000000000 +
b0000000000000000 ,
b0000000000000000 -
b0000000000000000 .
b0000000000000000 /
b0000000000000000 0
b0000000000000000 1
b0000000000000000 2
b0000000000000000 3
b0000000000000000 4
b0000000000000000 5
b0000000000000000 6
b0000000000000000 7
b0000000000000000 8
b0000000000000000 9
b0000000000000000 :
b0000000000000000 ;
b0000000000000000 <
b0000000000000000 =
b0000000000000000 >
b0000000000000000 ?
b0000000000000000 @
b0000000000000000 A
b0000000000000000 B
b0000000000000000 C
b0000000000000000 D
b0000000000000000 E
b0000000000000000 F
0G
b0000000000000000 H
b0000000000000000 I
0J
0K
b0000000000 L
0M
0N
0O
b10000001 P
0Q
1R
b000000000 S
b0000000 T
b00000000 U
b00000000 V
b00000000 W
b10000000 X
b10000000 Y
b00000000 Z
b00000000 [
b00000000 \
b00000000000000000000 ]
b0000000000000000 ^
b0000000000000 _
b0000000000 `
b0000000000000000 a
b000000000000000 b
b0000000000 c
b000000000000000 d
b00000000000 e
b00000000000000000 f
0g
0h
0i
0j
0k
0l
0m
0n
0o
0p
0q
0r
0s
0t
0u
0v
0w
0x
0y
0z
0{
0|
0}
0~
0!!
0"!
0#!
0$!
0%!
0&!
0'!
0(!
0)!
0*!
0+!
0,!
0-!
0.!
0/!
00!
01!
02!
03!
04!
05!
06!
07!
08!
09!
0:!
0;!
0<!
0=!
0>!
0?!
0@!
0A!
0B!
0C!
0D!
0E!
0F!
0G!
0H!
0I!
0J!
0K!
0L!
0M!
0N!
0O!
0P!
0Q!
0R!
0S!
0T!
0U!
0V!
0W!
0X!
0Y!
0Z!
0[!
0\!
0]!
0^!
0_!
0`!
0a!
0b!
0c!
0d!
0e!
0f!
0g!
0h!
0i!
0j!
0k!
0l!
0m!
0n!
0o!
0p!
0q!
0r!
0s!
0t!
0u!
0v!
0w!
0x!
0y!
0z!
0{!
0|!
0}!
0~!
0!"
0""
0#"
0$"
0%"
0&"
0'"
0("
0)"
0*"
0+"
0,"
0-"
0."
0/"
00"
01"
02"
03"
04"
05"
06"
07"
08"
09"
0:"
0;"
0<"
0="
0>"
0?"
0@"
0A"
0B"
0C"
0D"
0E"
0F"
0G"
0H"
0I"
0J"
0K"
0L"
0M"
0N"
0O"
0P"
0Q"
0R"
0S"
0T"
b00000000000000000000000000000001 U"
#500
1T"
#1000
1#
b0100011100100000 (
b0100010010010001 )
b0100100001111110 *
b0100010101101111 +
b0100100001010100 ,
b0100010110001011 -
b0100000000111111 .
b0100100010011110 /
b0100011111100000 0
b0100100011110000 1
b0100000111000001 2
b0100011000100000 3
b0100100001001001 4
b0100011011111101 5
b0100011000111100 6
b0100010000100000 7
b0011111111110011 8
b0100001101011100 9
b0100000010110001 :
b0100001111111010 ;
b0100100011001001 <
b0011110011110000 =
b0100000011011101 >
b0100100010101100 ?
b0100011111111101 @
b0011111000101100 A
b0100011101101111 B
b0100011110101000 C
b0011110110111010 D
b0100001110001000 E
0T"
#1500
b0100011100100000 %
b0100000111000001 &
1'
b0100100101110001 F
1G
b0100011100100000 H
b0100000111000001 I
1J
1K
b1111000101 L
b10010010 P
0R
b111000101 S
b1110001 T
b10010010 U
b10001110 V
b10000011 W
b00001110 X
b00000011 Y
b00010001 Z
b10100000 [
b11000001 \
b11000001000000000000 ]
b1100000100000 _
b1100000100 `
b111100010100000 b
b111100010100000 d
b00111100010100000 f
11!
12!
1R!
1S!
1Z!
1f!
1g!
1!"
1&"
1."
1/"
11"
13"
15"
17"
1:"
1D"
1F"
1K"
1L"
1P"
1T"
#2000
0T"
#2500
b00000000000000000000000000000001 $
b0100010010010001 %
b0100011000100000 &
b0100101100110101 F
b0100010010010001 H
b0100011000100000 I
b1011010101 L
b10010110 P
b011010101 S
b0110101 T
b10010110 U
b10001001 V
b10001100 W
b00001001 X
b00001100 Y
b00010101 Z
b10010001 [
b10100000 \
b01010000000010100000 ]
b0101010100000 _
b1010000000 `
b101101010100000 b
b101101010100000 d
b00101101010100000 f
1v
1y
1"!
1%!
01!
02!
1D!
1F!
1Q!
0R!
1^!
1c!
0f!
0g!
1z!
1{!
1*"
05"
07"
1>"
0D"
0F"
1T"
#3000
0T"
#3500
b00000000000000000000000000000010 $
b0100100001111110 %
b0100100001001001 &
b0101000101000111 F
b0100100001111110 H
b0100100001001001 I
b1000111011 L
1M
1N
b10100010 P
b100011101 S
b1000111 T
b10100010 U
b10010000 V
b10010000 W
b00010000 X
b00010000 Y
b00100000 Z
b11111110 [
b11001001 \
b10011111111010110110 ]
b1100000010000000 ^
b1001101001110 _
b1001110110 `
b1100000010101100 a
b101100011101110 b
b0011101000 c
b011011001101110 d
b10010001000 e
b01100011101101110 f
1i
1j
1r
1t
0v
1x
0"!
1#!
1(!
1)!
1+!
1,!
1.!
11!
12!
14!
17!
1:!
1<!
1@!
1A!
1C!
0D!
1H!
1I!
1L!
1N!
1O!
1R!
0S!
1T!
1U!
1V!
1Y!
0Z!
1[!
1\!
0^!
1_!
1`!
1b!
1d!
1f!
1g!
1m!
1o!
1r!
1s!
1w!
1y!
0z!
0{!
1|!
1~!
1#"
1$"
1%"
1)"
0*"
1+"
1,"
0/"
10"
17"
0:"
1;"
1@"
1B"
1C"
1D"
1E"
1F"
1G"
0L"
1M"
1R"
1T"
#4000
0T"
#4500
b00000000000000000000000000000011 $
b0100010101101111 %
b0100011011111101 &
b0100110011101100 F
b0100010101101111 H
b0100011011111101 I
b1101100001 L
b10011001 P
b110110000 S
b1101100 T
b10011001 U
b10001010 V
b10001101 W
b00001010 X
b00001101 Y
b00010111 Z
b11101111 [
b11111101 \
b11000010011011110011 ]
b0111101011111110 ^
b1100101000011 _
b1001110100 `
b1111110110111110 a
b101001000110011 b
b0110111000 c
b011011100110011 d
b10110101000 e
b01110110000110011 f
1g
0j
1k
1l
1m
1p
1q
1s
1u
1v
1w
1z
1{
1|
1}
1~
1!!
1"!
1$!
1&!
1/!
02!
13!
19!
0:!
1;!
0<!
1=!
1>!
0A!
1B!
1E!
0F!
1G!
0I!
1J!
0N!
0O!
0Q!
1S!
0T!
0V!
1W!
1]!
0c!
1i!
1l!
1n!
1p!
1q!
1t!
1u!
1v!
1x!
1z!
0#"
0$"
0&"
1'"
1*"
0+"
0."
12"
14"
19"
1<"
1?"
0@"
0G"
1I"
1N"
0R"
1T"
#5000
0T"
#5500
b00000000000000000000000000000100 $
b0100100001010100 %
b0100011000111100 &
b0100111100011100 F
b0100100001010100 H
b0100011000111100 I
b0011011101 L
b10011110 P
b001101110 S
b0011100 T
b10011110 U
b10010000 V
b10001100 W
b00010000 X
b00001100 Y
b00011100 Z
b11010100 [
b10111100 \
b01011110001011110000 ]
b0000000000000000 ^
b0100100110000 _
b1110001000 `
b0011100010110000 a
b111110110110000 b
b0000100000 c
b110001110110000 d
b00111000000 e
b01001101110110000 f
0g
0i
0k
0l
0m
0p
0q
0r
0u
0v
0w
0z
0{
0|
0!!
0"!
0#!
0&!
0(!
0)!
0+!
0,!
0.!
0/!
01!
03!
04!
15!
09!
1:!
0;!
1<!
0=!
0>!
1?!
0@!
1A!
0B!
0C!
1D!
0E!
1F!
0G!
0H!
0J!
0L!
1Q!
0R!
0U!
0W!
1X!
0Y!
1Z!
0[!
0\!
0f!
0g!
1k!
0l!
0o!
0s!
0w!
0y!
1{!
0|!
1}!
0~!
0%"
1&"
0'"
1("
0*"
0,"
1-"
1."
02"
03"
15"
09"
1:"
0;"
0?"
0B"
0D"
0E"
0F"
1L"
0M"
1T"
#6000
0T"
#6500
b00000000000000000000000000000101 $
b0100010110001011 %
b0100010000100000 &
b0100101000101110 F
b0100010110001011 H
b0100010000100000 I
b1010110111 L
0M
0N
b10010100 P
b010110111 S
b0101110 T
b10010100 U
b10001011 V
b10001000 W
b00001011 X
b00001000 Y
b00010011 Z
b10001011 [
b10100000 \
b00101000000111100000 ]
b0010011100000 _
b1010000000 `
b0000000001000000 a
b101011011100000 b
b0000000000 c
b101011011100000 d
b00000000000 e
b00101011011100000 f
0s
0t
1v
0x
1|
0}
1"!
0$!
1+!
1-!
05!
07!
0:!
0<!
1>!
0?!
0D!
0F!
1H!
1K!
0Q!
0S!
0X!
1\!
0]!
1^!
0_!
0`!
1a!
0b!
0d!
0i!
0k!
0m!
0n!
0p!
0q!
0r!
0t!
0u!
0v!
0x!
1$"
0("
0)"
1*"
1,"
0-"
0."
00"
13"
04"
05"
07"
0<"
0C"
0I"
0N"
1R"
1T"
#7000
0T"
#7500
b00000000000000000000000000000110 $
b0100000000111111 %
b0011111111110011 &
b0100000010110101 F
b0100000000111111 H
b0011111111110011 I
b0110101010 L
1M
1N
b10000001 P
b011010101 S
b0110101 T
b10000001 U
b10000000 V
b01111111 W
b00000000 X
b11111111 Y
b11111111 Z
b10111111 [
b11110011 \
b10110110011011011001 ]
b1111001111110011 ^
b1011111011101 _
b1100111111 `
b0110000010110010 a
b111010110101101 b
b0011111010 c
b100101000001101 d
b01101011010 e
b01011010101001101 f
1h
1i
1k
1n
1o
1q
1t
1w
0y
1z
1{
1}
1!!
1#!
1$!
1&!
1'!
1(!
1*!
1,!
0-!
1.!
10!
11!
13!
16!
17!
19!
1<!
1?!
0A!
1B!
1C!
1D!
1E!
1F!
1G!
1I!
1J!
1L!
1M!
1N!
1P!
1Q!
1R!
1T!
1U!
1V!
1W!
1X!
0Z!
1]!
1_!
1`!
0a!
1b!
1c!
1d!
1f!
1g!
1j!
1k!
1o!
1s!
1v!
1x!
0{!
1|!
1~!
1#"
0$"
1%"
1'"
1("
1)"
0*"
1+"
0,"
1-"
1/"
03"
14"
15"
18"
0:"
1;"
1="
1@"
1D"
1F"
1G"
1J"
0P"
1Q"
0R"
1T"
#8000
0T"
#8500
b00000000000000000000000000000111 $
b0100100010011110 %
b0100001101011100 &
b0100110010001000 F
b0100100010011110 H
b0100001101011100 I
b0000111110 L
b10011001 P
b000011111 S
b0001000 T
b10011001 U
b10010001 V
b10000110 W
b00010001 X
b00000110 Y
b00010111 Z
b10011110 [
b11011100 \
b01011001001011001000 ]
b0100110010011000 ^
b0101110001000 _
b1100111100 `
b0010000010011000 a
b110100011001000 b
b0011110000 c
b111011111001000 d
b00010000000 e
b01000011111001000 f
0h
0i
0k
1m
0n
0q
1r
1s
0t
1u
0v
1x
0{
0|
0!!
0"!
0$!
0&!
0'!
0(!
0*!
1/!
00!
01!
12!
03!
14!
15!
06!
07!
18!
1:!
0<!
1=!
0>!
1A!
0B!
0D!
0E!
0G!
0J!
0K!
0M!
0N!
0P!
0R!
1S!
0T!
0U!
0W!
0X!
1[!
0\!
0_!
0f!
0j!
1n!
1r!
0z!
0|!
0}!
0!"
0#"
1$"
0%"
0("
1,"
0-"
1."
0/"
10"
01"
13"
04"
17"
08"
1:"
0;"
1<"
0="
0@"
0F"
0J"
0Q"
1R"
1T"
#9000
0T"
#9500
b00000000000000000000000000001000 $
b0100011111100000 %
b0100000010110001 &
b0100100100011011 F
b0100011111100000 H
b0100000010110001 I
b0011010111 L
0N
b10010010 P
b001101011 S
b0011011 T
b10010010 U
b10001111 V
b10000001 W
b00001111 X
b00000001 Y
b00010000 Z
b11100000 [
b10110001 \
b10110001000000000000 ]
b0000000000000000 ^
b1011000100000 _
b1110100110 `
b0010000000000000 a
b110001011100000 b
b1010000000 c
b101101011100000 d
b01000000000 e
b01001101011100000 f
0m
0o
0r
0s
0u
0w
0x
0z
0}
0~
0#!
0%!
0+!
0,!
0.!
0/!
11!
04!
05!
08!
09!
0:!
0=!
0?!
0A!
0C!
1E!
0H!
0I!
1J!
1K!
0L!
0Q!
0S!
0V!
1Z!
0[!
0]!
0^!
0`!
0b!
0d!
1f!
0k!
0n!
0o!
1q!
0r!
1u!
1z!
1{!
1!"
1#"
0'"
0)"
1*"
0+"
0,"
0."
1/"
00"
16"
07"
18"
0<"
1B"
1C"
0D"
1F"
0G"
1P"
1T"
#10000
0T"
#10500
b00000000000000000000000000001001 $
b0100100011110000 %
b0100001111111010 &
b0100110101101010 F
b0100100011110000 H
b0100001111111010 I
b1101010011 L
b10011010 P
b110101001 S
b1101010 T
b10011010 U
b10010001 V
b10000111 W
b00010001 X
b00000111 Y
b00011000 Z
b11110000 [
b11111010 \
b10000111000000000000 ]
b1111000000000000 ^
b1000011100000 _
b1011101100 `
b1111100000000000 a
b100110101100000 b
b1000010000 c
b001000001100000 d
b11011010000 e
b01110101001100000 f
10!
01!
16!
17!
1:!
1<!
1?!
1@!
1B!
1D!
0F!
1G!
1I!
0K!
1L!
1Q!
1R!
1T!
1\!
1^!
0c!
1e!
0f!
1j!
1k!
1m!
1p!
1r!
1t!
1w!
1y!
1|!
1}!
0~!
0#"
0&"
1'"
1("
0*"
1-"
1."
0/"
10"
05"
0:"
1="
0>"
0B"
1D"
1E"
0L"
1M"
1T"
#11000
0T"
#11500
b00000000000000000000000000001010 $
0'
0G
1T"
