waves/wallacetree_8b_waves.vcd
$version Generated by VerilatedVcd $end
$timescale 1ps $end
 $scope module $rootio $end
 $upscope $end
 $scope module wallacetree_8b_tb $end
  $var wire 8 # tb_a [7:0] $end
  $var wire 8 $ tb_b [7:0] $end
  $var wire 10 ( tb_out [9:0] $end
  $var wire 16 ) tb_debug_output [15:0] $end
  $var wire 16 % golden_out [15:0] $end
  $var wire 1 #" tb_clk $end
  $var wire 32 & i [31:0] $end
  $var wire 32 ' failed_cases [31:0] $end
  $var wire 1 * tb_ovf $end
  $var wire 1 + tb_roundloss $end
  $var wire 32 $" SEED [31:0] $end
  $var wire 32 %" NUM_TESTS [31:0] $end
  $scope module trash_heap $end
   $var wire 8 # a [7:0] $end
   $var wire 8 $ b [7:0] $end
   $var wire 10 ( result [9:0] $end
   $var wire 1 * overflow $end
   $var wire 1 + round_loss $end
   $var wire 16 ) debug_output [15:0] $end
   $var wire 20 , stage1_sums [19:0] $end
   $var wire 16 - stage1_carries [15:0] $end
   $var wire 13 . stage2_level1_sums [12:0] $end
   $var wire 10 / stage2_level2_sums [9:0] $end
   $var wire 16 0 stage2_carries [15:0] $end
   $var wire 15 1 stage3_sums [14:0] $end
   $var wire 10 2 stage3_carries [9:0] $end
   $var wire 15 3 stage4_sums [14:0] $end
   $var wire 11 4 stage4_carries [10:0] $end
   $var wire 17 5 product [16:0] $end
   $scope module genblk1[0] $end
    $scope module genblk1[2] $end
     $scope module fa_00 $end
      $var wire 1 6 a $end
      $var wire 1 7 b $end
      $var wire 1 8 cin $end
      $var wire 1 9 s $end
      $var wire 1 : cout $end
     $upscope $end
    $upscope $end
    $scope module genblk1[3] $end
     $scope module fa_00 $end
      $var wire 1 ; a $end
      $var wire 1 < b $end
      $var wire 1 = cin $end
      $var wire 1 > s $end
      $var wire 1 ? cout $end
     $upscope $end
    $upscope $end
    $scope module genblk1[4] $end
     $scope module fa_00 $end
      $var wire 1 @ a $end
      $var wire 1 A b $end
      $var wire 1 B cin $end
      $var wire 1 C s $end
      $var wire 1 D cout $end
     $upscope $end
    $upscope $end
    $scope module genblk1[5] $end
     $scope module fa_00 $end
      $var wire 1 E a $end
      $var wire 1 F b $end
      $var wire 1 G cin $end
      $var wire 1 H s $end
      $var wire 1 I cout $end
     $upscope $end
    $upscope $end
    $scope module genblk1[6] $end
     $scope module fa_00 $end
      $var wire 1 J a $end
      $var wire 1 K b $end
      $var wire 1 L cin $end
      $var wire 1 M s $end
      $var wire 1 N cout $end
     $upscope $end
    $upscope $end
    $scope module genblk1[7] $end
     $scope module fa_00 $end
      $var wire 1 O a $end
      $var wire 1 P b $end
      $var wire 1 Q cin $end
      $var wire 1 R s $end
      $var wire 1 S cout $end
     $upscope $end
    $upscope $end
    $scope module ha_00_first $end
     $var wire 1 T a $end
     $var wire 1 U b $end
     $var wire 1 V s $end
     $var wire 1 W cout $end
    $upscope $end
    $scope module ha_00_last $end
     $var wire 1 X a $end
     $var wire 1 Y b $end
     $var wire 1 Z s $end
     $var wire 1 [ cout $end
    $upscope $end
   $upscope $end
   $scope module genblk1[1] $end
    $scope module genblk1[2] $end
     $scope module fa_00 $end
      $var wire 1 \ a $end
      $var wire 1 ] b $end
      $var wire 1 ^ cin $end
      $var wire 1 _ s $end
      $var wire 1 ` cout $end
     $upscope $end
    $upscope $end
    $scope module genblk1[3] $end
     $scope module fa_00 $end
      $var wire 1 a a $end
      $var wire 1 b b $end
      $var wire 1 c cin $end
      $var wire 1 d s $end
      $var wire 1 e cout $end
     $upscope $end
    $upscope $end
    $scope module genblk1[4] $end
     $scope module fa_00 $end
      $var wire 1 f a $end
      $var wire 1 g b $end
      $var wire 1 h cin $end
      $var wire 1 i s $end
      $var wire 1 j cout $end
     $upscope $end
    $upscope $end
    $scope module genblk1[5] $end
     $scope module fa_00 $end
      $var wire 1 k a $end
      $var wire 1 l b $end
      $var wire 1 m cin $end
      $var wire 1 n s $end
      $var wire 1 o cout $end
     $upscope $end
    $upscope $end
    $scope module genblk1[6] $end
     $scope module fa_00 $end
      $var wire 1 p a $end
      $var wire 1 q b $end
      $var wire 1 r cin $end
      $var wire 1 s s $end
      $var wire 1 t cout $end
     $upscope $end
    $upscope $end
    $scope module genblk1[7] $end
     $scope module fa_00 $end
      $var wire 1 u a $end
      $var wire 1 v b $end
      $var wire 1 w cin $end
      $var wire 1 x s $end
      $var wire 1 y cout $end
     $upscope $end
    $upscope $end
    $scope module ha_00_first $end
     $var wire 1 z a $end
     $var wire 1 { b $end
     $var wire 1 | s $end
     $var wire 1 } cout $end
    $upscope $end
    $scope module ha_00_last $end
     $var wire 1 ~ a $end
     $var wire 1 !! b $end
     $var wire 1 "! s $end
     $var wire 1 #! cout $end
    $upscope $end
   $upscope $end
   $scope module genblk2[3] $end
    $scope module fa_s2_l1 $end
     $var wire 1 > a $end
     $var wire 1 : b $end
     $var wire 1 $! cin $end
     $var wire 1 %! s $end
     $var wire 1 &! cout $end
    $upscope $end
   $upscope $end
   $scope module genblk2[4] $end
    $scope module fa_s2_l1 $end
     $var wire 1 C a $end
     $var wire 1 ? b $end
     $var wire 1 | cin $end
     $var wire 1 '! s $end
     $var wire 1 (! cout $end
    $upscope $end
   $upscope $end
   $scope module genblk2[5] $end
    $scope module fa_s2_l1 $end
     $var wire 1 H a $end
     $var wire 1 D b $end
     $var wire 1 _ cin $end
     $var wire 1 )! s $end
     $var wire 1 *! cout $end
    $upscope $end
   $upscope $end
   $scope module genblk2[6] $end
    $scope module fa_s2_l1 $end
     $var wire 1 M a $end
     $var wire 1 I b $end
     $var wire 1 d cin $end
     $var wire 1 +! s $end
     $var wire 1 ,! cout $end
    $upscope $end
   $upscope $end
   $scope module genblk2[7] $end
    $scope module fa_s2_l1 $end
     $var wire 1 R a $end
     $var wire 1 N b $end
     $var wire 1 i cin $end
     $var wire 1 -! s $end
     $var wire 1 .! cout $end
    $upscope $end
   $upscope $end
   $scope module genblk2[8] $end
    $scope module fa_s2_l1 $end
     $var wire 1 Z a $end
     $var wire 1 S b $end
     $var wire 1 n cin $end
     $var wire 1 /! s $end
     $var wire 1 0! cout $end
    $upscope $end
   $upscope $end
   $scope module genblk2[9] $end
    $scope module fa_s2_l1 $end
     $var wire 1 1! a $end
     $var wire 1 [ b $end
     $var wire 1 s cin $end
     $var wire 1 2! s $end
     $var wire 1 3! cout $end
    $upscope $end
   $upscope $end
   $scope module genblk3[2] $end
    $scope module fa_s2_l2 $end
     $var wire 1 e a $end
     $var wire 1 4! b $end
     $var wire 1 5! cin $end
     $var wire 1 6! s $end
     $var wire 1 7! cout $end
    $upscope $end
   $upscope $end
   $scope module genblk3[3] $end
    $scope module fa_s2_l2 $end
     $var wire 1 j a $end
     $var wire 1 8! b $end
     $var wire 1 9! cin $end
     $var wire 1 :! s $end
     $var wire 1 ;! cout $end
    $upscope $end
   $upscope $end
   $scope module genblk3[4] $end
    $scope module fa_s2_l2 $end
     $var wire 1 o a $end
     $var wire 1 <! b $end
     $var wire 1 =! cin $end
     $var wire 1 >! s $end
     $var wire 1 ?! cout $end
    $upscope $end
   $upscope $end
   $scope module genblk3[5] $end
    $scope module fa_s2_l2 $end
     $var wire 1 t a $end
     $var wire 1 @! b $end
     $var wire 1 A! cin $end
     $var wire 1 B! s $end
     $var wire 1 C! cout $end
    $upscope $end
   $upscope $end
   $scope module genblk3[6] $end
    $scope module fa_s2_l2 $end
     $var wire 1 y a $end
     $var wire 1 D! b $end
     $var wire 1 E! cin $end
     $var wire 1 F! s $end
     $var wire 1 G! cout $end
    $upscope $end
   $upscope $end
   $scope module genblk3[7] $end
    $scope module fa_s2_l2 $end
     $var wire 1 #! a $end
     $var wire 1 H! b $end
     $var wire 1 I! cin $end
     $var wire 1 J! s $end
     $var wire 1 K! cout $end
    $upscope $end
   $upscope $end
   $scope module genblk4[10] $end
    $scope module fa_s3_l1 $end
     $var wire 1 x a $end
     $var wire 1 3! b $end
     $var wire 1 B! cin $end
     $var wire 1 L! s $end
     $var wire 1 M! cout $end
    $upscope $end
   $upscope $end
   $scope module genblk4[5] $end
    $scope module fa_s3_l1 $end
     $var wire 1 )! a $end
     $var wire 1 (! b $end
     $var wire 1 } cin $end
     $var wire 1 N! s $end
     $var wire 1 O! cout $end
    $upscope $end
   $upscope $end
   $scope module genblk4[6] $end
    $scope module fa_s3_l1 $end
     $var wire 1 +! a $end
     $var wire 1 *! b $end
     $var wire 1 P! cin $end
     $var wire 1 Q! s $end
     $var wire 1 R! cout $end
    $upscope $end
   $upscope $end
   $scope module genblk4[7] $end
    $scope module fa_s3_l1 $end
     $var wire 1 -! a $end
     $var wire 1 ,! b $end
     $var wire 1 6! cin $end
     $var wire 1 S! s $end
     $var wire 1 T! cout $end
    $upscope $end
   $upscope $end
   $scope module genblk4[8] $end
    $scope module fa_s3_l1 $end
     $var wire 1 /! a $end
     $var wire 1 .! b $end
     $var wire 1 :! cin $end
     $var wire 1 U! s $end
     $var wire 1 V! cout $end
    $upscope $end
   $upscope $end
   $scope module genblk4[9] $end
    $scope module fa_s3_l1 $end
     $var wire 1 2! a $end
     $var wire 1 0! b $end
     $var wire 1 >! cin $end
     $var wire 1 W! s $end
     $var wire 1 X! cout $end
    $upscope $end
   $upscope $end
   $scope module genblk5[10] $end
    $scope module fa_s4_l1 $end
     $var wire 1 L! a $end
     $var wire 1 X! b $end
     $var wire 1 ?! cin $end
     $var wire 1 Y! s $end
     $var wire 1 Z! cout $end
    $upscope $end
   $upscope $end
   $scope module genblk5[11] $end
    $scope module fa_s4_l1 $end
     $var wire 1 [! a $end
     $var wire 1 M! b $end
     $var wire 1 C! cin $end
     $var wire 1 \! s $end
     $var wire 1 ]! cout $end
    $upscope $end
   $upscope $end
   $scope module genblk5[12] $end
    $scope module fa_s4_l1 $end
     $var wire 1 ^! a $end
     $var wire 1 _! b $end
     $var wire 1 G! cin $end
     $var wire 1 `! s $end
     $var wire 1 a! cout $end
    $upscope $end
   $upscope $end
   $scope module genblk5[13] $end
    $scope module fa_s4_l1 $end
     $var wire 1 b! a $end
     $var wire 1 c! b $end
     $var wire 1 K! cin $end
     $var wire 1 d! s $end
     $var wire 1 e! cout $end
    $upscope $end
   $upscope $end
   $scope module genblk5[7] $end
    $scope module fa_s4_l1 $end
     $var wire 1 S! a $end
     $var wire 1 R! b $end
     $var wire 1 f! cin $end
     $var wire 1 g! s $end
     $var wire 1 h! cout $end
    $upscope $end
   $upscope $end
   $scope module genblk5[8] $end
    $scope module fa_s4_l1 $end
     $var wire 1 U! a $end
     $var wire 1 T! b $end
     $var wire 1 7! cin $end
     $var wire 1 i! s $end
     $var wire 1 j! cout $end
    $upscope $end
   $upscope $end
   $scope module genblk5[9] $end
    $scope module fa_s4_l1 $end
     $var wire 1 W! a $end
     $var wire 1 V! b $end
     $var wire 1 ;! cin $end
     $var wire 1 k! s $end
     $var wire 1 l! cout $end
    $upscope $end
   $upscope $end
   $scope module ha_s2_l1_b2 $end
    $var wire 1 9 a $end
    $var wire 1 W b $end
    $var wire 1 m! s $end
    $var wire 1 n! cout $end
   $upscope $end
   $scope module ha_s2_l2_b1 $end
    $var wire 1 ` a $end
    $var wire 1 o! b $end
    $var wire 1 P! s $end
    $var wire 1 f! cout $end
   $upscope $end
   $scope module ha_s2_l2_b8 $end
    $var wire 1 p! a $end
    $var wire 1 q! b $end
    $var wire 1 b! s $end
    $var wire 1 r! cout $end
   $upscope $end
   $scope module ha_s3_l1_b11 $end
    $var wire 1 "! a $end
    $var wire 1 F! b $end
    $var wire 1 [! s $end
    $var wire 1 _! cout $end
   $upscope $end
   $scope module ha_s3_l1_b12 $end
    $var wire 1 s! a $end
    $var wire 1 J! b $end
    $var wire 1 ^! s $end
    $var wire 1 c! cout $end
   $upscope $end
   $scope module ha_s3_l1_b3 $end
    $var wire 1 %! a $end
    $var wire 1 n! b $end
    $var wire 1 t! s $end
    $var wire 1 u! cout $end
   $upscope $end
   $scope module ha_s3_l1_b4 $end
    $var wire 1 '! a $end
    $var wire 1 &! b $end
    $var wire 1 v! s $end
    $var wire 1 w! cout $end
   $upscope $end
   $scope module ha_s4_l1_b14 $end
    $var wire 1 x! a $end
    $var wire 1 r! b $end
    $var wire 1 y! s $end
    $var wire 1 z! cout $end
   $upscope $end
   $scope module ha_s4_l1_b4 $end
    $var wire 1 v! a $end
    $var wire 1 u! b $end
    $var wire 1 {! s $end
    $var wire 1 |! cout $end
   $upscope $end
   $scope module ha_s4_l1_b5 $end
    $var wire 1 N! a $end
    $var wire 1 w! b $end
    $var wire 1 }! s $end
    $var wire 1 ~! cout $end
   $upscope $end
   $scope module ha_s4_l1_b6 $end
    $var wire 1 Q! a $end
    $var wire 1 O! b $end
    $var wire 1 !" s $end
    $var wire 1 "" cout $end
   $upscope $end
  $upscope $end
 $upscope $end
$enddefinitions $end


#0
b11101010 #
b11100110 $
b1101001000111100 %
b00000000000000000000000000000000 &
b00000000000000000000000000000000 '
b1010010001 (
b1101001000111100 )
1*
1+
b11011111100111001100 ,
b0100000000000000 -
b1101000111100 .
b1000010100 /
b1110010001110000 0
b101101100111100 1
b0001010000 2
b010110000111100 3
b10100110000 4
b01101001000111100 5
06
17
08
19
0:
0;
1<
0=
1>
0?
0@
0A
0B
0C
0D
0E
0F
0G
0H
0I
0J
1K
0L
1M
0N
0O
1P
0Q
1R
0S
0T
0U
0V
0W
1X
0Y
1Z
0[
1\
0]
0^
1_
0`
0a
0b
1c
1d
0e
0f
0g
1h
1i
0j
1k
0l
0m
1n
0o
1p
0q
0r
1s
0t
1u
0v
1w
0x
1y
1z
0{
1|
0}
0~
1!!
1"!
0#!
0$!
1%!
0&!
1'!
0(!
1)!
0*!
0+!
1,!
0-!
1.!
0/!
10!
01!
12!
03!
14!
05!
16!
07!
18!
19!
0:!
1;!
0<!
1=!
1>!
0?!
0@!
0A!
0B!
0C!
1D!
0E!
0F!
1G!
1H!
1I!
0J!
1K!
0L!
0M!
1N!
0O!
0P!
0Q!
0R!
0S!
1T!
1U!
0V!
1W!
1X!
1Y!
0Z!
1[!
1\!
0]!
1^!
0_!
0`!
1a!
0b!
0c!
1d!
0e!
0f!
0g!
0h!
0i!
1j!
0k!
1l!
1m!
0n!
0o!
1p!
1q!
1r!
1s!
1t!
0u!
1v!
0w!
1x!
0y!
1z!
1{!
0|!
1}!
0~!
0!"
0""
0#"
b00000000000000000000000000001010 $"
b00000000000000000000000000010100 %"
#1000
1#"
#2000
b11101000 #
b11100100 $
b1100111010100000 %
b00000000000000000000000000000001 &
b1001110101 (
b1100111010100000 )
0+
b11011101000000000000 ,
b1101110100000 .
b1000011000 /
b1110000000000000 0
b101100010100000 1
b0001100000 2
b010111010100000 3
b10100000000 4
b01100111010100000 5
07
09
0<
0>
0K
0M
0P
0R
0X
0Z
0c
0d
0z
0|
0%!
0'!
0,!
1-!
0.!
1/!
00!
04!
06!
09!
1:!
0;!
1S!
0T!
0U!
1V!
0W!
1g!
0j!
1k!
0l!
0m!
0t!
0v!
0{!
0#"
#3000
1#"
#4000
b11100110 #
b11100010 $
b1100101100001100 %
b00000000000000000000000000000010 &
b1001011000 (
b1100101100001100 )
1+
b11100010001001001100 ,
b0000000011000000 -
b1110100001100 .
b1001001100 /
b1100000010010000 0
b101000000001100 1
b0110110000 2
b010101100001100 3
b01100101100001100 5
17
19
1=
1>
1K
1M
1P
1Q
1S
1X
1Y
1[
0\
0_
1c
1d
0h
0i
0k
0n
0p
0s
0u
1x
0y
1%!
0)!
1,!
0-!
11!
02!
13!
14!
16!
08!
19!
0=!
0>!
1F!
0G!
1M!
0N!
0S!
1T!
0X!
0Y!
0[!
1_!
0g!
1i!
1m!
1t!
0}!
0#"
#5000
1#"
#6000
b11100100 #
b11100000 $
b1100011110000000 %
b00000000000000000000000000000011 &
b1000111100 (
b1100011110000000 )
0+
b11100000001110000000 ,
b0000000000000000 -
b1111110000000 .
b1001000000 /
b1100000000000000 0
b101011110000000 1
b0100000000 2
b010011110000000 3
b01100011110000000 5
07
09
0=
0>
0K
0M
0P
1R
0S
0X
1Z
0[
0c
0d
0%!
0,!
1-!
12!
03!
04!
06!
09!
0:!
1L!
0M!
1S!
0T!
1U!
0V!
1W!
1Y!
0\!
1g!
0m!
0t!
0#"
#7000
1#"
#8000
b11100010 #
b11011110 $
b1100001111111100 %
b00000000000000000000000000000100 &
b1000011111 (
b1100001111111100 )
1+
b11011110000110111100 ,
b1101001111100 .
b1011000100 /
b1001110001100000 0
b100000111111100 1
b1101000000 2
b011101111111100 3
b10001000000 4
b01100001111111100 5
17
19
1<
1>
1A
1C
1F
1H
1P
0Q
1X
0Y
1c
1d
1h
1i
1m
1n
1r
1s
0w
0x
1%!
1'!
1)!
1+!
0-!
1.!
0/!
10!
01!
14!
16!
18!
19!
1;!
1<!
1=!
1?!
1@!
1A!
1C!
0D!
1E!
0I!
1J!
0K!
0L!
1N!
1Q!
0W!
1X!
0Y!
1Z!
1\!
0^!
1`!
0a!
1c!
1m!
1t!
1v!
1{!
1}!
1!"
0#"
#9000
1#"
#10000
b11100000 #
b11011100 $
b1100000010000000 %
b00000000000000000000000000000101 &
b1000000100 (
b1100000010000000 )
0+
b11011100000000000000 ,
b1101110000000 .
b1011001000 /
b1001100000000000 0
b100001010000000 1
b1100100000 2
b011110010000000 3
b10000100000 4
b01100000010000000 5
07
09
0<
0>
0A
0C
0F
0H
0P
0R
0X
0Z
0c
0d
0%!
0'!
0)!
0+!
1-!
0.!
1/!
00!
04!
06!
09!
1:!
0;!
0N!
0Q!
0U!
1V!
1W!
0X!
1Y!
0Z!
0i!
0k!
1l!
0m!
0t!
0v!
0{!
0}!
0!"
0#"
#11000
1#"
#12000
b11011110 #
b11011010 $
b1011110100001100 %
b00000000000000000000000000000110 &
b0111101000 (
b1011110100001100 )
1+
b01011011101011011100 ,
b0100100010010000 -
b0101111101100 .
b1010010100 /
b1011010010010100 0
b101110111001100 1
b0001010100 2
b000001010001100 3
b10111010100 4
b01011110100001100 5
17
19
1=
1>
1A
1C
1F
1G
1I
1L
1M
1P
1R
1X
1Y
1[
1]
1_
1a
1d
1f
1g
0h
0i
1j
1l
0m
1p
0r
1u
1v
1y
1z
1|
1~
0!!
1%!
1(!
1)!
1+!
1,!
11!
13!
14!
16!
08!
19!
0:!
1;!
0=!
1>!
0?!
0F!
1G!
1L!
1O!
1Q!
1T!
1U!
0V!
0W!
1X!
0Y!
1Z!
1[!
0\!
1]!
1^!
0_!
0`!
1a!
0c!
0d!
1j!
1k!
0l!
1m!
0s!
1t!
1""
0#"
#13000
1#"
#14000
b11011100 #
b11011000 $
b1011100110100000 %
b00000000000000000000000000000111 &
b0111001101 (
b1011100110100000 )
0+
b01011010001101100000 ,
b0100100000000000 -
b0100000100000 .
b1010011000 /
b1011000011010000 0
b101110110100000 1
b0001000000 2
b000000110100000 3
b10111000000 4
b01011100110100000 5
07
09
0=
0>
0A
0C
0F
1H
0I
0P
0R
0X
1Z
0[
0]
0_
0z
0|
0%!
0(!
0+!
0-!
0/!
10!
02!
04!
06!
09!
1:!
0;!
1N!
0O!
0Q!
0T!
1i!
0j!
0k!
0m!
0t!
1}!
0""
0#"
#15000
1#"
#16000
b11011010 #
b11010110 $
b1011011000111100 %
b00000000000000000000000000001000 &
b0110110001 (
b1011011000111100 )
1+
b01011110100110101100 ,
b0100001000000000 -
b0101001111100 .
b1010110110 /
b1010010001100000 0
b101111110111100 1
b0001001000 2
b000100100111100 3
b10101101000 4
b01011011000111100 5
17
19
1<
1>
1F
0G
0L
0M
1P
1R
1X
0Y
1\
1]
1`
0a
1b
0g
1i
0j
1z
1|
1%!
1'!
1+!
0,!
1.!
01!
12!
03!
14!
16!
18!
19!
0:!
1;!
0<!
1=!
0A!
1B!
0C!
1P!
1R!
1W!
1\!
0]!
0g!
1h!
1l!
1m!
1t!
1v!
1{!
0#"
#17000
1#"
#18000
b11011000 #
b11010100 $
b1011001011100000 %
b00000000000000000000000000001001 &
b0110010111 (
b1011001011100000 )
0+
b01011111000000000000 ,
b0100000000000000 -
b0101111100000 .
b1010111000 /
b1010000000000000 0
b101110011100000 1
b0001100000 2
b000101011100000 3
b10101000000 4
b01011001011100000 5
07
09
0<
0>
0F
0H
0P
0R
0X
0Z
0]
1_
0`
0z
0|
0%!
0'!
1-!
0.!
1/!
00!
04!
06!
09!
1:!
0;!
0P!
1Q!
0R!
0U!
1V!
0W!
1g!
0h!
0i!
1k!
0l!
0m!
0t!
0v!
0{!
1!"
0#"
#19000
1#"
#20000
b11010110 #
b11010010 $
b1010111110001100 %
b00000000000000000000000000001010 &
b0101111100 (
b1010111110001100 )
1+
b01101001001011101100 ,
b0000000010000000 -
b0110111001100 .
b1011101100 /
b1000000010001000 0
b101010000001100 1
b0110111000 2
b000111110001100 3
b10100000000 4
b01010111110001100 5
17
19
1=
1>
1F
1H
1L
1M
1P
1R
1X
1Y
1[
0\
1]
0b
0d
0f
0i
0p
0s
0u
1x
0y
1%!
0)!
1*!
11!
02!
13!
14!
16!
08!
19!
0=!
0>!
1F!
0G!
1M!
0N!
0Q!
1R!
0S!
1T!
0X!
1Y!
0Z!
0[!
1_!
1i!
1m!
1t!
0}!
0!"
0#"
#21000
1#"
#22000
b11010100 #
b11010000 $
b1010110001000000 %
b00000000000000000000000000001011 &
b0101100010 (
b1010110001000000 )
0+
b01101000001101000000 ,
b0000000000000000 -
b0111001000000 .
b1011100000 /
b1000000001000000 0
b101000001000000 1
b0111000000 2
b000110001000000 3
b01010110001000000 5
07
09
0=
0>
0F
0H
0P
0R
0X
1Z
0[
0]
0_
0%!
0*!
0-!
0/!
10!
12!
03!
04!
06!
09!
0:!
0L!
1Q!
0R!
0T!
0V!
1X!
0g!
0i!
0k!
0m!
0t!
1!"
0#"
#23000
1#"
#24000
b11010010 #
b11001110 $
b1010100011111100 %
b00000000000000000000000000001100 &
b0101000111 (
b1010100011111100 )
1+
b01100111000110011100 ,
b0110101111100 .
b1010100100 /
b1000110000100000 0
b101100011111100 1
b0010100000 2
b001010011111100 3
b10010100000 4
b01010100011111100 5
17
19
1<
1>
1A
1C
0L
0M
1P
1R
1X
0Y
1]
1_
1b
1d
1g
1i
0l
0n
1%!
1'!
1)!
1.!
1/!
00!
01!
02!
14!
16!
18!
19!
1;!
1<!
1=!
1?!
0@!
1A!
0E!
0F!
1N!
1S!
1V!
0X!
1[!
0\!
1]!
0_!
1`!
0a!
1g!
1l!
1m!
1t!
1v!
1{!
1}!
0#"
#25000
1#"
#26000
b11010000 #
b11001100 $
b1010010111000000 %
b00000000000000000000000000001101 &
b0100101110 (
b1010010111000000 )
0+
b01100110000000000000 ,
b0110011000000 .
b1010101000 /
b1000100000000000 0
b101100111000000 1
b0010000000 2
b001010111000000 3
b10010000000 4
b01010010111000000 5
07
09
0<
0>
0A
0C
0P
0R
0X
0Z
0]
0_
0%!
0'!
0)!
1-!
0.!
0/!
04!
06!
09!
1:!
0;!
0N!
1U!
0V!
1i!
0l!
0m!
0t!
0v!
0{!
0}!
0#"
#27000
1#"
#28000
b11001110 #
b11001010 $
b1010001010001100 %
b00000000000000000000000000001110 &
b0100010100 (
b1010001010001100 )
1+
b00110010101010111100 ,
b0000000010000000 -
b0011011101100 .
b1010111100 /
b1000000010000100 0
b101010101001100 1
b0011010100 2
b001100000001100 3
b10001010100 4
b01010001010001100 5
17
19
1=
1>
1A
1C
1G
1H
1P
1R
1X
1Y
1[
1a
0b
0g
0i
1p
1s
1u
0v
1z
1|
0~
0"!
1%!
1(!
1)!
11!
12!
13!
14!
16!
08!
19!
0=!
1>!
0?!
1L!
1O!
0S!
1T!
1X!
0Y!
1Z!
0[!
1\!
0]!
0g!
0i!
1j!
1m!
1t!
0!"
1""
0#"
#29000
1#"
#30000
b11001100 #
b11001000 $
b1001111101100000 %
b00000000000000000000000000001111 &
b0011111011 (
b1001111101100000 )
0+
b00110010001100100000 ,
b0000000000000000 -
b0010101100000 .
b1010110000 /
b1000000010000000 0
b101011101100000 1
b0010000000 2
b001111101100000 3
b10000000000 4
b01001111101100000 5
07
09
0=
0>
0A
0C
0P
0R
0X
1Z
0[
0z
0|
0%!
0(!
0-!
1/!
02!
04!
06!
09!
0:!
1N!
0O!
0T!
1W!
0X!
1Y!
0Z!
1i!
0j!
1k!
0m!
0t!
1}!
1!"
0""
0#"
#31000
1#"
#32000
b11001010 #
b11000110 $
b1001110000111100 %
b00000000000000000000000000010000 &
b0011100001 (
b1001110000111100 )
1+
b00110001100110001100 ,
b0011110111100 .
b1010010100 /
b1000010000000000 0
b101010100111100 1
b0001010000 2
b001001000111100 3
b10001010000 4
b01001110000111100 5
17
19
1<
1>
0G
0H
1P
1R
1X
0Y
1\
1_
0a
0d
1z
1|
1%!
1'!
0+!
1-!
01!
12!
03!
14!
16!
18!
19!
1;!
0<!
1=!
0A!
0B!
0M!
0Q!
1T!
0W!
1X!
0Y!
1Z!
0\!
0i!
1j!
1m!
1t!
1v!
1{!
0!"
0#"
#33000
1#"
#34000
b11001000 #
b11000100 $
b1001100100100000 %
b00000000000000000000000000010001 &
b0011001001 (
b1001100100100000 )
0+
b00110001000000000000 ,
b0011000100000 .
b1010011000 /
b1000000000000000 0
b101010100100000 1
b0001000000 2
b001000100100000 3
b10001000000 4
b01001100100100000 5
07
09
0<
0>
0P
0R
0X
0Z
0z
0|
0%!
0'!
0-!
0/!
04!
06!
09!
1:!
0;!
0T!
1i!
0j!
0k!
0m!
0t!
0v!
0{!
0#"
#35000
1#"
#36000
b11000110 #
b11000010 $
b1001011000001100 %
b00000000000000000000000000010010 &
b0010110000 (
b1001011000001100 )
1+
b00000000001010001100 ,
b0000000010000000 -
b0000010001100 .
b1010001100 /
b1000000010000000 0
b101010100001100 1
b0000010000 2
b001010000001100 3
b10000010000 4
b01001011000001100 5
17
19
1=
1>
1P
1R
1X
1Y
1[
0\
0_
0p
0s
0u
0x
1%!
0)!
1-!
11!
02!
13!
14!
16!
08!
19!
0=!
0>!
0N!
1T!
0X!
1Y!
0Z!
0i!
1j!
1m!
1t!
0}!
0#"
#37000
1#"
#38000
b11000100 #
b11000000 $
b1001001100000000 %
b00000000000000000000000000010011 &
b0010011000 (
b1001001100000000 )
0+
b00000000001100000000 ,
b0000000000000000 -
b0001100000000 .
b1010000000 /
b1000000000000000 0
b101001100000000 1
b0000000000 2
b001001100000000 3
b10000000000 4
b01001001100000000 5
07
09
0=
0>
0P
0R
0X
1Z
0[
0%!
0-!
1/!
12!
03!
04!
06!
09!
0:!
0L!
0T!
1W!
0Y!
1i!
0j!
1k!
0m!
0t!
0#"
#39000
1#"
#40000
b00000000000000000000000000010100 &
0#"
